{
  "page": 1,
  "total_results": 313533,
  "total_pages": 15677,
  "results": [
    {
      "vote_count": 922,
      "id": 166426,
      "video": false,
      "vote_average": 6.5,
      "title": "Pirates of the Caribbean: Dead Men Tell No Tales",
      "popularity": 177.972203,
      "poster_path": "/xbpSDU3p7YUGlu9Mr6Egg2Vweto.jpg",
      "original_language": "en",
      "original_title": "Pirates of the Caribbean: Dead Men Tell No Tales",
      "genre_ids": [
        28,
        12,
        35,
        14
      ],
      "backdrop_path": "/3DVKG54lqYbdh8RNylXeCf4MBPw.jpg",
      "adult": false,
      "overview": "Captain Jack Sparrow searches for the trident of Poseidon while being pursued by an undead sea captain and his crew.",
      "release_date": "2017-05-23"
    },
    {
      "vote_count": 614,
      "id": 297762,
      "video": false,
      "vote_average": 7.1,
      "title": "Wonder Woman",
      "popularity": 115.700275,
      "poster_path": "/gfJGlDaHuWimErCr5Ql0I8x9QSy.jpg",
      "original_language": "en",
      "original_title": "Wonder Woman",
      "genre_ids": [
        28,
        12,
        14,
        878
      ],
      "backdrop_path": "/hA5oCgvgCxj5MEWcLpjXXTwEANF.jpg",
      "adult": false,
      "overview": "An Amazon princess comes to the world of Man to become the greatest of the female superheroes.",
      "release_date": "2017-05-30"
    },
    {
      "vote_count": 3020,
      "id": 321612,
      "video": false,
      "vote_average": 6.8,
      "title": "Beauty and the Beast",
      "popularity": 77.168288,
      "poster_path": "/tWqifoYuwLETmmasnGHO7xBjEtt.jpg",
      "original_language": "en",
      "original_title": "Beauty and the Beast",
      "genre_ids": [
        10402,
        10751,
        14,
        10749
      ],
      "backdrop_path": "/7QshG75xKCmClghQDU1ta2BTaja.jpg",
      "adult": false,
      "overview": "A live-action adaptation of Disney's version of the classic 'Beauty and the Beast' tale of a cursed prince and a beautiful young woman who helps him break the spell.",
      "release_date": "2017-03-16"
    },
    {
      "vote_count": 3718,
      "id": 263115,
      "video": false,
      "vote_average": 7.5,
      "title": "Logan",
      "popularity": 64.873575,
      "poster_path": "/9EXnebqbb7dOhONLPV9Tg2oh2KD.jpg",
      "original_language": "en",
      "original_title": "Logan",
      "genre_ids": [
        28,
        18,
        878
      ],
      "backdrop_path": "/miqmTwqvnYiPEdolZv0biI7vFw2.jpg",
      "adult": false,
      "overview": "In the near future, a weary Logan cares for an ailing Professor X in a hideout on the Mexican border. But Logan's attempts to hide from the world and his legacy are upended when a young mutant arrives, pursued by dark forces.",
      "release_date": "2017-02-28"
    },
    {
      "vote_count": 5716,
      "id": 22,
      "video": false,
      "vote_average": 7.4,
      "title": "Pirates of the Caribbean: The Curse of the Black Pearl",
      "popularity": 59.01884,
      "poster_path": "/tkt9xR1kNX5R9rCebASKck44si2.jpg",
      "original_language": "en",
      "original_title": "Pirates of the Caribbean: The Curse of the Black Pearl",
      "genre_ids": [
        12,
        14,
        28
      ],
      "backdrop_path": "/fQZQYW9Hrg8TpYZH4KgbRptkcCN.jpg",
      "adult": false,
      "overview": "Jack Sparrow, a freewheeling 17th-century pirate who roams the Caribbean Sea, butts heads with a rival pirate bent on pillaging the village of Port Royal. When the governor's daughter is kidnapped, Sparrow decides to help the girl's love save her. But their seafaring mission is hardly simple.",
      "release_date": "2003-07-09"
    },
    {
      "vote_count": 2188,
      "id": 283995,
      "video": false,
      "vote_average": 7.6,
      "title": "Guardians of the Galaxy Vol. 2",
      "popularity": 40.391207,
      "poster_path": "/y4MBh0EjBlMuOzv9axM4qJlmhzz.jpg",
      "original_language": "en",
      "original_title": "Guardians of the Galaxy Vol. 2",
      "genre_ids": [
        28,
        12,
        35,
        878
      ],
      "backdrop_path": "/aJn9XeesqsrSLKcHfHP4u5985hn.jpg",
      "adult": false,
      "overview": "The Guardians must fight to keep their newfound family together as they unravel the mysteries of Peter Quill's true parentage.",
      "release_date": "2017-04-19"
    },
    {
      "vote_count": 1672,
      "id": 335797,
      "video": false,
      "vote_average": 6.8,
      "title": "Sing",
      "popularity": 33.481291,
      "poster_path": "/s9ye87pvq2IaDvjv9x4IOXVjvA7.jpg",
      "original_language": "en",
      "original_title": "Sing",
      "genre_ids": [
        16,
        35,
        18,
        10751,
        10402
      ],
      "backdrop_path": "/usJKCEMXV3tECgIJj8ZTEndmY2E.jpg",
      "adult": false,
      "overview": "A koala named Buster recruits his best friend to help him drum up business for his theater by hosting a singing competition.",
      "release_date": "2016-11-23"
    },
    {
      "vote_count": 960,
      "id": 126889,
      "video": false,
      "vote_average": 6,
      "title": "Alien: Covenant",
      "popularity": 32.696445,
      "poster_path": "/ewVHnq4lUiovxBCu64qxq5bT2lu.jpg",
      "original_language": "en",
      "original_title": "Alien: Covenant",
      "genre_ids": [
        27,
        878,
        53
      ],
      "backdrop_path": "/kMU8trT43p5LFoJ4plIySMOsZ1T.jpg",
      "adult": false,
      "overview": "Bound for a remote planet on the far side of the galaxy, the crew of the colony ship Covenant discovers what they think is an uncharted paradise, but is actually a dark, dangerous world — whose sole inhabitant is the “synthetic” David, survivor of the doomed Prometheus expedition.",
      "release_date": "2017-05-09"
    },
    {
      "vote_count": 1618,
      "id": 324552,
      "video": false,
      "vote_average": 6.5,
      "title": "John Wick: Chapter 2",
      "popularity": 32.380912,
      "poster_path": "/6GL7tdkaEP5nBwVrPqg8U3AYrCX.jpg",
      "original_language": "en",
      "original_title": "John Wick: Chapter 2",
      "genre_ids": [
        53,
        28,
        80
      ],
      "backdrop_path": "/dQ6s3Ud2KoOs3LKw6xgZr1cw7Yq.jpg",
      "adult": false,
      "overview": "John Wick is forced out of retirement by a former associate looking to seize control of a shadowy international assassins’ guild. Bound by a blood oath to aid him, Wick travels to Rome and does battle against some of the world’s most dangerous killers.",
      "release_date": "2017-02-08"
    },
    {
      "vote_count": 4229,
      "id": 245891,
      "video": false,
      "vote_average": 7,
      "title": "John Wick",
      "popularity": 31.750858,
      "poster_path": "/5vHssUeVe25bMrof1HyaPyWgaP.jpg",
      "original_language": "en",
      "original_title": "John Wick",
      "genre_ids": [
        28,
        53
      ],
      "backdrop_path": "/mFb0ygcue4ITixDkdr7wm1Tdarx.jpg",
      "adult": false,
      "overview": "Ex-hitman John Wick comes out of retirement to track down the gangsters that took everything from him.",
      "release_date": "2014-10-22"
    },
    {
      "vote_count": 8848,
      "id": 157336,
      "video": false,
      "vote_average": 8,
      "title": "Interstellar",
      "popularity": 29.942483,
      "poster_path": "/nBNZadXqJSdt05SHLqgT0HuC5Gm.jpg",
      "original_language": "en",
      "original_title": "Interstellar",
      "genre_ids": [
        12,
        18,
        878
      ],
      "backdrop_path": "/xu9zaAevzQ5nnrsXN6JcahLnG4i.jpg",
      "adult": false,
      "overview": "Interstellar chronicles the adventures of a group of explorers who make use of a newly discovered wormhole to surpass the limitations on human space travel and conquer the vast distances involved in an interstellar voyage.",
      "release_date": "2014-11-05"
    },
    {
      "vote_count": 4313,
      "id": 58,
      "video": false,
      "vote_average": 6.9,
      "title": "Pirates of the Caribbean: Dead Man's Chest",
      "popularity": 29.474396,
      "poster_path": "/waFr5RVKaQ9dzOt3nQuIVB1FiPu.jpg",
      "original_language": "en",
      "original_title": "Pirates of the Caribbean: Dead Man's Chest",
      "genre_ids": [
        12,
        14,
        28
      ],
      "backdrop_path": "/hdHgIcljPHli4xaJGt0INz8Gn3J.jpg",
      "adult": false,
      "overview": "Captain Jack Sparrow works his way out of a blood debt with the ghostly Davey Jones, he also attempts to avoid eternal damnation.",
      "release_date": "2006-06-20"
    },
    {
      "vote_count": 7672,
      "id": 118340,
      "video": false,
      "vote_average": 7.9,
      "title": "Guardians of the Galaxy",
      "popularity": 29.188338,
      "poster_path": "/y31QB9kn3XSudA15tV7UWQ9XLuW.jpg",
      "original_language": "en",
      "original_title": "Guardians of the Galaxy",
      "genre_ids": [
        28,
        878,
        12
      ],
      "backdrop_path": "/bHarw8xrmQeqf3t8HpuMY7zoK4x.jpg",
      "adult": false,
      "overview": "Light years from Earth, 26 years after being abducted, Peter Quill finds himself the prime target of a manhunt after discovering an orb wanted by Ronan the Accuser.",
      "release_date": "2014-07-30"
    },
    {
      "vote_count": 3242,
      "id": 87101,
      "video": false,
      "vote_average": 5.8,
      "title": "Terminator Genisys",
      "popularity": 25.749331,
      "poster_path": "/5JU9ytZJyR3zmClGmVm9q4Geqbd.jpg",
      "original_language": "en",
      "original_title": "Terminator Genisys",
      "genre_ids": [
        878,
        28,
        53,
        12
      ],
      "backdrop_path": "/bIlYH4l2AyYvEysmS2AOfjO7Dn8.jpg",
      "adult": false,
      "overview": "The year is 2029. John Connor, leader of the resistance continues the war against the machines. At the Los Angeles offensive, John's fears of the unknown future begin to emerge when TECOM spies reveal a new plot by SkyNet that will attack him from both fronts; past and future, and will ultimately change warfare forever.",
      "release_date": "2015-06-23"
    },
    {
      "vote_count": 755,
      "id": 324849,
      "video": false,
      "vote_average": 7.2,
      "title": "The Lego Batman Movie",
      "popularity": 25.712741,
      "poster_path": "/snGwr2gag4Fcgx2OGmH9otl6ofW.jpg",
      "original_language": "en",
      "original_title": "The Lego Batman Movie",
      "genre_ids": [
        14,
        28,
        16,
        35,
        10751
      ],
      "backdrop_path": "/gbO4tWvMC0oLbNvHP9Zth3eUeAA.jpg",
      "adult": false,
      "overview": "In the irreverent spirit of fun that made “The Lego Movie” a worldwide phenomenon, the self-described leading man of that ensemble—Lego Batman—stars in his own big-screen adventure. But there are big changes brewing in Gotham, and if he wants to save the city from The Joker’s hostile takeover, Batman may have to drop the lone vigilante thing, try to work with others and maybe, just maybe, learn to lighten up.",
      "release_date": "2017-02-08"
    },
    {
      "vote_count": 4134,
      "id": 1865,
      "video": false,
      "vote_average": 6.4,
      "title": "Pirates of the Caribbean: On Stranger Tides",
      "popularity": 24.506219,
      "poster_path": "/wNUDAq5OUMOtxMlz64YaCp7gZma.jpg",
      "original_language": "en",
      "original_title": "Pirates of the Caribbean: On Stranger Tides",
      "genre_ids": [
        12,
        28,
        14
      ],
      "backdrop_path": "/l7zANdjgTvYqwZUx76Vk0EKpCH5.jpg",
      "adult": false,
      "overview": "Captain Jack Sparrow crosses paths with a woman from his past, and he's not sure if it's love -- or if she's a ruthless con artist who's using him to find the fabled Fountain of Youth. When she forces him aboard the Queen Anne's Revenge, the ship of the formidable pirate Blackbeard, Jack finds himself on an unexpected adventure in which he doesn't know who to fear more: Blackbeard or the woman from his past.",
      "release_date": "2011-05-14"
    },
    {
      "vote_count": 725,
      "id": 395992,
      "video": false,
      "vote_average": 6.1,
      "title": "Life",
      "popularity": 24.038738,
      "poster_path": "/h2mhfbEBGABSHo2vXG1ECMKAJa7.jpg",
      "original_language": "en",
      "original_title": "Life",
      "genre_ids": [
        27,
        878,
        53
      ],
      "backdrop_path": "/haEACwDiVTnPFcwd9KDlZBae1Ef.jpg",
      "adult": false,
      "overview": "The six-member crew of the International Space Station is tasked with studying a sample from Mars that may be the first proof of extra-terrestrial life, which proves more intelligent than ever expected.",
      "release_date": "2017-03-23"
    },
    {
      "vote_count": 7413,
      "id": 135397,
      "video": false,
      "vote_average": 6.5,
      "title": "Jurassic World",
      "popularity": 23.4236,
      "poster_path": "/jjBgi2r5cRt36xF6iNUEhzscEcb.jpg",
      "original_language": "en",
      "original_title": "Jurassic World",
      "genre_ids": [
        28,
        12,
        878,
        53
      ],
      "backdrop_path": "/dkMD5qlogeRMiEixC4YNPUvax2T.jpg",
      "adult": false,
      "overview": "Twenty-two years after the events of Jurassic Park, Isla Nublar now features a fully functioning dinosaur theme park, Jurassic World, as originally envisioned by John Hammond.",
      "release_date": "2015-06-09"
    },
    {
      "vote_count": 3658,
      "id": 285,
      "video": false,
      "vote_average": 6.9,
      "title": "Pirates of the Caribbean: At World's End",
      "popularity": 23.150272,
      "poster_path": "/bXb00CkHqx7TPchTGG131sWV59y.jpg",
      "original_language": "en",
      "original_title": "Pirates of the Caribbean: At World's End",
      "genre_ids": [
        12,
        14,
        28
      ],
      "backdrop_path": "/8ZgpAftUiYTU76IhUADITa3Ur9n.jpg",
      "adult": false,
      "overview": "Captain Barbossa, long believed to be dead, has come back to life and is headed to the edge of the Earth with Will Turner and Elizabeth Swann. But nothing is quite as it seems.",
      "release_date": "2007-05-19"
    },
    {
      "vote_count": 57,
      "id": 282035,
      "video": false,
      "vote_average": 4.8,
      "title": "The Mummy",
      "popularity": 22.936107,
      "poster_path": "/zxkY8byBnCsXodEYpK8tmwEGXBI.jpg",
      "original_language": "en",
      "original_title": "The Mummy",
      "genre_ids": [
        28,
        12,
        14,
        27,
        53
      ],
      "backdrop_path": "/qedJJ2z9oBYKxxO4Pp8qAkfgPst.jpg",
      "adult": false,
      "overview": "Though safely entombed in a crypt deep beneath the unforgiving desert, an ancient queen whose destiny was unjustly taken from her is awakened in our current day, bringing with her malevolence grown over millennia, and terrors that defy human comprehension.",
      "release_date": "2017-06-06"
    }
  ]
}